/Users/mark/Downloads/AkkaActor-main/src/main/java/demo/AkkaApp.java
/Users/mark/Downloads/AkkaActor-main/src/main/java/demo/actors/LogLineProcessor.java
/Users/mark/Downloads/AkkaActor-main/src/main/java/demo/actors/FileAnalysisActor.java
/Users/mark/Downloads/AkkaActor-main/src/main/java/demo/messages/LineProcessingResult.java
/Users/mark/Downloads/AkkaActor-main/src/main/java/demo/messages/FileAnalysisMessage.java
/Users/mark/Downloads/AkkaActor-main/src/main/java/demo/messages/Tweet.java
/Users/mark/Downloads/AkkaActor-main/src/main/java/demo/messages/LogLineMessage.java
/Users/mark/Downloads/AkkaActor-main/src/main/java/demo/messages/FileProcessedMessage.java
